^C:\USERS\NAVI\SOURCE\REPOS\SINGLY LINKED LIST\SINGLY LINKED LIST\MAIN.CPP
C:\USERS\NAVI\SOURCE\REPOS\SINGLY LINKED LIST\SINGLY LINKED LIST\RELEASE\VC141.PDB
C:\USERS\NAVI\SOURCE\REPOS\SINGLY LINKED LIST\SINGLY LINKED LIST\RELEASE\MAIN.OBJ
